---------------------------------------
Values 1 through 146 are FoV Regimes.
Values 147 through 559 are Hunt Registries.
Values 560 through 601 are Dominion Regimes.
Values 302 through 819 are Dominion Regimes.

---------------------------------------
Fields of Valor

Page  ID    Area                      Target MOBs
?     1    West Ronfaure             Worms
?     2    West Ronfaure             Hares
?     3    West Ronfaure             Beetles/Funguars
?     4    West Ronfaure             Orcs/Beetles
?     5    La Theine Plateau         Saplings/Wasps
?     6    La Theine Plateau         Funguars
?     7    Valkurm Dunes             Lizards/Hares
?     8    Valkurm Dunes             Crabs/Lizards
?     9    Valkurm Dunes             Flies/Crabs
?     10   Valkurm Dunes             Sheep/Flies
?     11   Jugner Forest             Leeches
?     12   Jugner Forest             Beetles/Leeches
?     13   Jugner Forest             Funguars/Beetles
?     14   Jugner Forest             Funguars/Tigers
?     15   Batallia Downs            Flies/Bas
?     16   North Gustaberg           Worms
?     17   North Gustaberg           Hornets
?     18   North Gustaberg           Vultures/Saplings
?     19   North Gustaberg           Quadav/Lizards
?     20   Konschtat Highlands       Worms/Lizards
?     21   Pashhow Marshlands        Flies
?     22   Pashhow Marshlands        Leeches/Flies
?     23   Pashhow Marshlands        Crawlers/Leeches
?     24   Pashhow Marshlands        Funguars/Crawlers
?     25   Rolanberry Fields         Wasps/Crawlers
?     26   West Sarutabaruta         Mandragoras
?     27   West Sarutabaruta         Rarabs
?     28   West Sarutabaruta         Crawlers/Birds
?     29   West Sarutabaruta         Yagudo/Crawler
?     30   Tahrongi Canyon           Saplings/Bees
?     31   Tahrongi Canyon           Akababas
?     32   Buburimu Peninsula        Mandragoras/Rarabs
?     33   Buburimu Peninsula        Crawlers/Mandragoras
?     34   Buburimu Peninsula        Dhalmel/Crawlers
?     35   Buburimu Peninsula        Leeches/Dhalmel
?     36   Meriphataud Mountains     Flies
?     37   Meriphataud Mountains     Lizards/Flies
?     38   Meriphataud Mountains     Beetles/Lizards
?     39   Meriphataud Mountains     Raptors/Beetles
?     40   Sauromugue Champaign      Lizards/Beetles
?     41   Qufim Island              Clippers/Worms
?     42   Qufim Island              Clippers/Seeker Bats
?     43   Qufim Island              Pugils/Clippers
?     44   Qufim Island              Gigas/Pugils
?     45   Qufim Island              Acrophies/Gigas/Pugils
?     46   Beaucedine Glacier        Tigers/Goblins
?     47   Beaucedine Glacier        Tigers/Statues
?     48   Beaucedine Glacier        Bat Eyes/Statues
?     49   Beaucedine Glacier        Goblin/Bat Eyes/Statues
?     50   Beaucedine Glacier        Gigas/Goblin/Bat Eye
?     51   Xarcabard                 Skeleton/Etemmu
?     52   Xarcabard                 Skeleton/Evil Weapon
?     53   Xarcabard                 Evil Eyes/Skeleton/Evil Weapons
?     54   Xarcabard                 Gigas/Evil Eyes/Skeletons
?     55   Xarcabard                 Demon/Gigas/Evil Eye
?     56   West Ronfaure             Sheep/Goblin
?     57   Valkurm Dunes             Leeches/Goblin
?     58   Jugner Forest             Sapling/Screamer
?     59   North Gustaberg           Quadav/Sheep
?     60   Pashhow Marshlands        Quadav/Funguar/Goobbue
?     61   West Sarutabaruta         Yagudo/Bee
?     62   Buburimu Peninsula        Pugil/Goblin
?     63   Meriphataud Mountains     Coeurls/Evil Weapons
?     64   East Ronfaure             Pugils
?     65   East Ronfaure             Worms
?     66   East Ronfaure             Hares
?     67   East Ronfaure             Orcs/Funguar
?     68   East Ronfaure             Sheep/Beetles
?     69   La Theine Plateau         Sheep/Akbabas
?     70   La Theine Plateau         Sheep/Crab
?     71   La Theine Plateau         Bats/Funguar
?     72   Battalia Downs            Saplings/Flies
?     73   Battalia Downs            Saplings/Bas
?     74   Battalia Downs            Tigers/Goblins/Orcs
?     75   Battalia Downs            Tigers
?     76   South Gustaberg           Bees
?     77   South Gustaberg           Worms
?     78   South Gustaberg           Vultures/Saplings
?     79   South Gustaberg           Goblins
?     80   South Gustaberg           Lizards/Crabs
?     81   Konschtat Highlands       Saplings/Wasps
?     82   Konschtat Highlands       Wasps/Lizards
?     83   Konschtat Highlands       Quadav
?     84   Konschtat Highlands       Ambushers/Tinkerers/Butchers
?     85   Rolanberry Fields         Wasps/Leeches
?     86   Rolanberry Fields         Crawlers/Goblins
?     87   Rolanberry Fields         Crawlers/Quadav
?     88   Rolanberry Fields         Ochu
?     89   East Sarutabaruta         Mandragora
?     90   East Sarutabaruta         Bee
?     91   East Sarutabaruta         Rarabs
?     92   East Sarutabaruta         Crabs/Crawlers
?     93   East Sarutabaruta         Crows/Crawlers
?     94   Tahrongi Canyon           Rarabs/Pygmaioi
?     95   Tahrongi Canyon           Pygmaioi/Bees
?     96   Tahrongi Canyon           Crawlers/Dhalmel
?     97   Sauromugue Champaign      Raptors/Goblins
?     98   Sauromugue Champaign      Coeurls/Goblins
?     99   Sauromugue Champaign      Raptors/Yagudo
?    100   Sauromugue Champaign      Tabar Beaks/Evil Weapons
?    101   Behemoth's Dominion       Lesser Gaylas/Greater Gaylas
?    102   Behemoth's Dominion       Lesser Gayla/Evil Weapon
?    103   Behemoth's Dominion       Greater Gayla/Undead
?    104   Cape Teriggan             Bunnies/Lizards
?    105   Cape Teriggan             Crabs/Goblins
?    106   Cape Teriggan             Crabs/Raptors
?    107   Cape Teriggan             Crabs/Cockatrices
?    108   Cape Teriggan             Cockatrices/Manticores
?    109   Eastern Altepa Desert     Spiders
?    110   Eastern Altepa Desert     Auxiliarii/Fabers/Beetles
?    111   Eastern Altepa Desert     Funditors/Fabers/Dhalmel
?    112   Eastern Altepa Desert     Decurio/Sagittarii/Speculator/Manticore
?    113   Eastern Altepa Desert     Poachers/Robbers/Reapers/Manticore
?    114   The Sanctuary of Zi'Tah   Ogreflies/Goobbue
?    115   The Sanctuary of Zi'Tah   Myxomycetes/Ogreflies
?    116   The Sanctuary of Zi'Tah   Parasites/Myxomycetes
?    117   The Sanctuary of Zi'Tah   Coeurls/Parasites
?    118   The Sanctuary of Zi'Tah   Golems/Coeurls
?    119   Ro'Maeve                  Killing/Ominous Weapons
?    120   Ro'Maeve                  Flagons
?    121   Ro'Maeve                  Cursed Puppets
?    122   Ro'Maeve                  Apocalyptic Weapons/Golems
?    123   Ro'Maeve                  Infernal Weapons/Golems
?    124   Yuhtunga Jungle           Mandragoras/Lizards
?    125   Yuhtunga Jungle           Bees/Goblins
?    126   Yuhtunga Jungle           Opo-opo
?    127   Yuhtunga Jungle           Sahagin/Makara
?    128   Yuhtunga Jungle           Opo-opo/Crawlers
?    129   Yhoator Jungle            Lizards/Goblins
?    130   Yhoator Jungle            Mandragora/Wasps
?    131   Yhoator Jungle            Opo-opo
?    132   Yhoator Jungle            Crawlers/Opo-opo
?    133   Yhoator Jungle            Tonberry
?    134   Western Altepa Desert     Spiders/Essedarii
?    135   Western Altepa Desert     Dhalmel/Equites/Retiarius
?    136   Western Altepa Desert     Beetles/Cactuar
?    137   Western Altepa Desert     Goblins/Scorpions
?    138   Western Altepa Desert     Secutors/Lanistae
?    139   Valley of Sorrows         Raptors/Perytons
?    140   Valley of Sorrows         Raptors/Manticores
?    141   Valley of Sorrows         Perytons/Manticores
?    142   Ru'Aun Gardens            Flamingo/Sprinkler
?    143   Ru'Aun Gardens            Sprinklers/Dolls
?    144   Ru'Aun Gardens            Dolls
?    145   Ru'Aun Gardens            Fire/Air/Thunder Elementals
?    146   Ru'Aun Gardens            Ice/Earth/Water Elementals

---------------------------------------
Hunt Registry

 ID     Area                       Prey                    E.  F.  S.Req  S.Rew
147    West Ronfaure              Fungus Beetle            1    1     0     5 
148    West Ronfaure              Jaggedy-Eared Jack       ?    ?     ?     ?
149    West Ronfaure              Amanita                  ?    ?     ?     ?
150    East Ronfaure              Swamfisk                 ?    ?     ?     ?
151    East Ronfaure              Bigmouth Billy           ?    ?     ?     ?
152    East Ronfaure              Rambukk                  ?    ?     ?     ?
153    La Theine Plateau          Nihniknoovi              ?    ?     ?     ?
154    La Theine Plateau          Tumbling Truffle         ?    ?     ?     ?
155    La Theine Plateau          Slumbering Samwell       ?    ?     ?     ?
156    La Theine Plateau          Lumbering Lambert        ?    ?     ?     ?
157    Jugner Forest              Panzer Percival          ?    ?     ?     ?
158    Jugner Forest              Fraelissa                ?    ?     ?     ?
159    Jugner Forest              Sappy Sycamore           ?    ?     ?     ?
160    Jugner Forest              Supplespine Mujwuj       ?    ?     ?     ?
161    Batallia Downs             Tottering Toby           ?    ?     ?     ?
162    Batallia Downs             Skirling Liger           ?    ?     ?     ?
163    Batallia Downs             Eyegouger                ?    ?     ?     ?
164    Batallia Downs             Prankster Maverix        ?    ?     ?     ?
165    Carpenter's Landing        Hercules Beetle          ?    ?     ?     ?
166    Carpenter's Landing        Mycophile                ?    ?     ?     ?
167    Carpenter's Landing        Orctrap                  ?    ?     ?     ?
168    Carpenter's Landing        Tempest Tigon            ?    ?     ?     ?
169    Ghelsba Outpost            Orcish Wallbreacher      ?    ?     ?     ?
170    Ghelsba Outpost            Thousandarm Deshglesh    ?    ?     ?     ?
171    Ghelsba Outpost            Orcish Barricader        ?    ?     ?     ?
172    Fort Ghelsba               Hundredscar Hajwaj       ?    ?     ?     ?
173    Fort Ghelsba               Kegpaunch Doshgnosh      ?    ?     ?     ?
174    Fort Ghelsba               Chariotbuster Byakzak    ?    ?     ?     ?
175    King Ranperre's Tomb       Barbastelle              ?    ?     ?     ?
176    King Ranperre's Tomb       Ankou                    ?    ?     ?     ?
177    King Ranperre's Tomb       Gwyllgi                  ?    ?     ?     ?
178    Bostaunieux Oubliette      Arioch                   ?    ?     ?     ?
179    Bostaunieux Oubliette      Shii                     ?    ?     ?     ?
180    Bostaunieux Oubliette      Manes                    ?    ?     ?     ?
181    Ordelle's Caves            Donggu                   ?    ?     ?     ?
182    Ordelle's Caves            Bombast                  ?    ?     ?     ?
183    Ordelle's Caves            Agar Agar                ?    ?     ?     ?
184    Eldieme Necropolis         Skull of Gluttony        ?    ?     ?     ?
185    Eldieme Necropolis         Skull of Greed           ?    ?     ?     ?
186    Eldieme Necropolis         Skull of Sloth           ?    ?     ?     ?
187    Eldieme Necropolis         Skull of Lust            ?    ?     ?     ?
188    Eldieme Necropolis         Skull of Pride           ?    ?     ?     ?
189    Eldieme Necropolis         Skull of Envy            ?    ?     ?     ?
190    Eldieme Necropolis         Skull of Wrath           ?    ?     ?     ?
191    Eldieme Necropolis         Cwn Cyrff                ?    ?     ?     ?
192    Davoi                      Hawkeyed Dnatbat         ?    ?     ?     ?
193    Davoi                      Tigerbane Bakdak         ?    ?     ?     ?
194    Davoi                      Steelbiter Gudrud        ?    ?     ?     ?
195    Davoi                      Poisonhand Gnadgad       ?    ?     ?     ?
196    Davoi                      Blubbery Bulge           ?    ?     ?     ?
197    North Gustaberg            Stinging Sophie          ?    ?     ?     ?
198    North Gustaberg            Maighdean Uaine          ?    ?     ?     ?
199    North Gustaberg            Bedrock Barry            ?    ?     ?     ?
200    South Gustaberg            Leaping Lizzy            ?    ?     ?     ?
201    South Gustaberg            Tococo                   ?    ?     ?     ?
202    South Gustaberg            Carnero                  ?    ?     ?     ?
203    Konschtat Highlands        Stray Mary               ?    ?     ?     ?
204    Konschtat Highlands        Ghillie Dhu              ?    ?     ?     ?
205    Konschtat Highlands        Rampaging Ram            ?    ?     ?     ?
206    Konschtat Highlands        Highlander Lizard        ?    ?     ?     ?
207    Valkurm Dunes              Metal Shears             ?    ?     ?     ?
208    Valkurm Dunes              Golden Bat               ?    ?     ?     ?
209    Valkurm Dunes              Valkurm Emperor          ?    ?     ?     ?
210    Valkurm Dunes              Hippomaritimus           ?    ?     ?     ?
211    Pashhow Marshlands         Bloodpool Vorax          ?    ?     ?     ?
212    Pashhow Marshlands         Jolly Green              ?    ?     ?     ?
213    Pashhow Marshlands         Toxic Tamlyn             ?    ?     ?     ?
214    Pashhow Marshlands         Ni'Zho Bladebender       ?    ?     ?     ?
215    Rolanberry Fields          Black Triple Stars       ?    ?     ?     ?
216    Rolanberry Fields          Drooling Daisy           ?    ?     ?     ?
217    Rolanberry Fields          Ravenous Crawler         ?    ?     ?     ?
218    Rolanberry Fields          Eldritch Edge            ?    ?     ?     ?
219    Palborough Mines           Bu'Ghi Howlblade         ?    ?     ?     ?
220    Palborough Mines           Zi'Ghi Boneeater         ?    ?     ?     ?
221    Palborough Mines           Qu'Vho Deathhurler       ?    ?     ?     ?
222    Palborough Mines           Be'Hya Hundredwall       ?    ?     ?     ?
223    Dangruf Wadi               Teporingo                ?    ?     ?     ?
224    Dangruf Wadi               Chocoboleech             ?    ?     ?     ?
225    Dangruf Wadi               Geyser Lizard            ?    ?     ?     ?
226    Koroloka Tunnel            Cargo Crab Colin         ?    ?     ?     ?
227    Koroloka Tunnel            Falcatus Aranei          ?    ?     ?     ?
228    Koroloka Tunnel            Dame Blanche             ?    ?     ?     ?
229    Koroloka Tunnel            Thoon                    ?    ?     ?     ?
230    Gusgen Mines               Smothered Schmidt        ?    ?     ?     ?
231    Gusgen Mines               Crushed Krause           ?    ?     ?     ?
232    Gusgen Mines               Pulverized Pfeffer       ?    ?     ?     ?
233    Gusgen Mines               Burned Bergmann          ?    ?     ?     ?
234    Gusgen Mines               Wounded Wurfel           ?    ?     ?     ?
235    Gusgen Mines               Asphyxiated Amsel        ?    ?     ?     ?
236    Crawlers Nest              Demonic Tiphia           ?    ?     ?     ?
237    Crawlers Nest              Dynast Beetle            ?    ?     ?     ?
238    Crawlers Nest              Aqrabuamelu              ?    ?     ?     ?
239    Beadeaux                   Bi'Gho Headtaker         ?    ?     ?     ?
240    Beadeaux                   Ge'Dha Evileye           ?    ?     ?     ?
241    Beadeaux                   Da'Dha Hundredmask       ?    ?     ?     ?
242    Beadeaux                   Zo'Khu Blackcloud        ?    ?     ?     ?
243    Beadeaux                   Ga'Bhu Unvanquished      ?    ?     ?     ?
244    Oldton Movalpolos          Bugbear Strongman        ?    ?     ?     ?
245    Oldton Movalpolos          Goblin Wolfman           ?    ?     ?     ?
246    Oldton Movalpolos          Bugbear Muscleman        ?    ?     ?     ?
247    Newton Movalpolos          Swashstox Beadblinker    ?    ?     ?     ?
248    Newton Movalpolos          Bugbear Matman           ?    ?     ?     ?
249    Newton Movalpolos          Sword Sorcerer Solisoq   ?    ?     ?     ?
250    West Sarutabaruta          Tom Tit Tat              ?    ?     ?     ?
251    West Sarutabaruta          Nunyenunc                ?    ?     ?     ?
252    West Sarutabaruta          Numbing Norman           ?    ?     ?     ?
253    East Sarutabaruta          Spiny Spipi              ?    ?     ?     ?
254    East Sarutabaruta          Sharp-Eared Ropipi       ?    ?     ?     ?
255    East Sarutabaruta          Duke Decapod             ?    ?     ?     ?
256    Tahrongi Canyon            Yara Ma Yha Who          ?    ?     ?     ?
257    Tahrongi Canyon            Serpopard Ishtar         ?    ?     ?     ?
258    Tahrongi Canyon            Habrok                   ?    ?     ?     ?
259    Tahrongi Canyon            Herbage Hunter           ?    ?     ?     ?
260    Buburimbu Peninsula        Wake Warder Wanda        ?    ?     ?     ?
261    Buburimbu Peninsula        Buburimboo               ?    ?     ?     ?
262    Buburimbu Peninsula        Helldiver                ?    ?     ?     ?
263    Buburimu Peninsula         Backoo                   ?    ?     ?     ?
264    Bibiki Bay                 Serra                    ?    ?     ?     ?
265    Bibiki Bay                 Intulo                   ?    ?     ?     ?
266    Bibiki Bay                 Shankha                  ?    ?     ?     ?
267    Bibiki Bay                 Splacknuck               ?    ?     ?     ?
268    Meriphataud Mountains      Daggerclaw Dracos        ?    ?     ?     ?
269    Meriphataud Mountains      Patripatan               ?    ?     ?     ?
270    Meriphataud Mountains      Chonchon                 ?    ?     ?     ?
271    Meriphataud Mountains      Naa Zeku the Unwaiting   ?    ?     ?     ?
272    Sauromugue Champaign       Deadly Dodo              ?    ?     ?     ?
273    Sauromugue Champaign       Bashe                    ?    ?     ?     ?
274    Sauromugue Champaign       Thunderclaw Thuban       ?    ?     ?     ?
275    Sauromugue Champaign       Blighting Brand          ?    ?     ?     ?
276    Attoohwa Chasm             Sekhmet                  ?    ?     ?     ?
277    Attoohwa Chasm             Ambusher Antlion         ?    ?     ?     ?
278    Attoohwa Chasm             Citipati                 ?    ?     ?     ?
279    Attoohwa Chasm             Sargas                   ?    ?     ?     ?
280    Giddeus                    Juu Duzu the Whirlwind   ?    ?     ?     ?
281    Giddeus                    Hoo Mjuu the Torrent     ?    ?     ?     ?
282    Giddeus                    Vuu Puqu the Beguiler    ?    ?     ?     ?
283    Giddeus                    Quu Xijo the Illusory    ?    ?     ?     ?
284    Toraimarai Canal           Canal Moocher            ?    ?     ?     ?
285    Toraimarai Canal           Konjac                   ?    ?     ?     ?
286    Toraimarai Canal           Brazen Bones             ?    ?     ?     ?
287    Inner Horutoto Ruins       Nocuous Weapon           ?    ?     ?     ?
288    Inner Horutoto Ruins       Maltha                   ?    ?     ?     ?
289    Inner Horutoto Ruins       Slendlix Spindlethumb    ?    ?     ?     ?
290    Outer Horutoto Ruins       Desmodont                ?    ?     ?     ?
291    Outer Horutoto Ruins       Ah Puch                  ?    ?     ?     ?
292    Outer Horutoto Ruins       Legalox Heftyhind        ?    ?     ?     ?
293    Maze of Shakhrami          Trembler Tabitha         ?    ?     ?     ?
294    Maze of Shakhrami          Lesath                   ?    ?     ?     ?
295    Maze of Shakhrami          Gloombound Lurker        ?    ?     ?     ?
296    Labyrinth of Onzozo        Hellion                  ?    ?     ?     ?
297    Labyrinth of Onzozo        Peg Powler               ?    ?     ?     ?
298    Labyrinth of Onzozo        Soulstealer Skullnix     ?    ?     ?     ?
299    Labyrinth of Onzozo        Narasimha                ?    ?     ?     ?
300    Garlaige Citadel           Hazmat                   ?    ?     ?     ?
301    Garlaige Citidel           Hovering Hotpot          ?    ?     ?     ?
302    Garlaige Citidel           Frogamander              ?    ?     ?     ?
303    Castle Oztroja             Moo Ouzi the Swiftblade  ?    ?     ?     ?
304    Castle Oztroja             Saa Doyi the Fervid      ?    ?     ?     ?
305    Castle Oztroja             Yaa Haqa the Profane     ?    ?     ?     ?
306    Castle Oztroja             Lii Jixa the Somnolist   ?    ?     ?     ?
307    Qufim Island               Trickster Kinetix        ?    ?     ?     ?
308    Qufim Island               Slippery Sucker          ?    ?     ?     ?
309    Qufim Island               Qoofim                   ?    ?     ?     ?
310    Qufim Island               Atkorkamuy               ?    ?     ?     ?
311    Beaucedine Glacier         Kirata                   ?    ?     ?     ?
312    Beaucedine Glacier         Gargantua                ?    ?     ?     ?
313    Beaucedine Glacier         Calcabrina               ?    ?     ?     ?
314    Beaucedine Glacier         Humbaba                  ?    ?     ?     ?
315    Xarcabard                  Shadow Eye               ?    ?     ?     ?
316    Xarcabard                  Duke Focalor             ?    ?     ?     ?
317    Xarcabard                  Timeworn Warrior         ?    ?     ?     ?
318    Xarcabard                  Barbaric Weapon          ?    ?     ?     ?
319    Uleguerand Range           Bonnacon                 ?    ?     ?     ?
320    Uleguerand Range           Frost Flambeau           ?    ?     ?     ?
321    Uleguerand Range           Skvader                  ?    ?     ?     ?
322    Uleguerand Range           Magnotaur                ?    ?     ?     ?
323    Sanctuary of Zi'tah        Elusive Edwin            ?    ?     ?     ?
324    Sanctuary of Zi'tah        Keeper of Halidom        ?    ?     ?     ?
325    Sanctuary of Zi'tah        Bastet                   ?    ?     ?     ?
326    Sanctuary of Zi'tah        Huwasi                   ?    ?     ?     ?
327    Ro'Maeve                   Nightmare Vase           ?    ?     ?     ?
328    Ro'Maeve                   Rogue Receptacle         ?    ?     ?     ?
329    Ro'Maeve                   Martinet                 ?    ?     ?     ?
330    Ro'Maeve                   Nargun                   ?    ?     ?     ?
331    Upper Delfutt's Tower      Enkelados                ?    ?     ?     ?
332    Upper Delfutt's Tower      Ixtab                    ?    ?     ?     ?
333    Upper Delfutt's Tower      Autarch                  ?    ?     ?     ?
334    Middle Delkfutt's Tower    Eurytos                  ?    ?     ?     ?
335    Middle Delkfutt's Tower    Polybotes                ?    ?     ?     ?
336    Middle Delkfutt's Tower    Rhoitos                  ?    ?     ?     ?
337    Middle Delkfutt's Tower    Ophion                   ?    ?     ?     ?
338    Middle Delkfutt's Tower    Rhoikos                  ?    ?     ?     ?
339    Middle Delkfutt's Tower    Ogygos                   ?    ?     ?     ?
340    Lower Delkfutt's Tower     Epialtes                 ?    ?     ?     ?
341    Lower Delkfutt's Tower     Hippolytos               ?    ?     ?     ?
342    Lower Delkfutt's Tower     Eurymedon                ?    ?     ?     ?
343    Lower Delkfutt's Tower     Tyrant                   ?    ?     ?     ?
344    Ranguemont Pass            Hyakume                  ?    ?     ?     ?
345    Ranguemont Pass            Mucoid Mass              ?    ?     ?     ?
346    Ranguemont Pass            Gloom Eye                ?    ?     ?     ?
347    Fei'Yin                    Mind Hoarder             ?    ?     ?     ?
438    Fei'Yin                    Jenglot                  ?    ?     ?     ?
349    Fei'Yin                    Sluagh                   ?    ?     ?     ?
350    Castle Zvahl Baileys       Marquis Naberius         ?    ?     ?     ?
351    Castle Zvahl Baileys       Likho                    ?    ?     ?     ?
352    Castle Zvahl Baileys       Marquis Sabnock          ?    ?     ?     ?
353    Castle Zvahl Keep          Baronet Romwe            ?    ?     ?     ?
354    Castle Zvahl Keep          Baron Vapula             ?    ?     ?     ?
355    Castle Zvahl Keep          Count Bifrons            ?    ?     ?     ?
356    Castle Zvahl Keep          Viscount Morax           ?    ?     ?     ?
357    Boyahda Tree               Ellyllon                 ?    ?     ?     ?
358    Boyahda Tree               Aquarius                 ?    ?     ?     ?
359    Boyahda Tree               Unut                     ?    ?     ?     ?
360    Boyahda Tree               Leshonki                 ?    ?     ?     ?
361    Yuhtunga Jungle            Koropokkur               ?    ?     ?     ?
362    Yuhtunga Jungle            Mischievous Micholas     ?    ?     ?     ?
363    Yuhtunga Jungle            Bayawak                  ?    ?     ?     ?
364    Yuhtunga Jungle            Pyuu the Spatemaker      ?    ?     ?     ?
365    Yhoator Jungle             Powderer Penny           ?    ?     ?     ?
366    Yhoator Jungle             Edacious Opo-opo         ?    ?     ?     ?
367    Yhoator Jungle             Acolnahuacatl            ?    ?     ?     ?
368    Yhoator Jungle             Hoar-knuckled Rimberry   ?    ?     ?     ?
369    Sea Serpent grotto         Namtar                   ?    ?     ?     ?
370    Sea Serpent grotto         Wuur the Sandcomber      ?    ?     ?     ?
371    Sea Serpent grotto         Masan                    ?    ?     ?     ?
372    Sea Serpent grotto         Fyuu the Seabellow       ?    ?     ?     ?
373    Sea Serpent grotto         Qull the Shellbuster     ?    ?     ?     ?
374    Sea Serpent grotto         Seww the Squidlimbed     ?    ?     ?     ?
375    Sea Serpent grotto         Pahh the Gullcaller      ?    ?     ?     ?
376    Sea Serpent grotto         Sea Hog                  ?    ?     ?     ?
377    Sea Serpent grotto         Yarr the Pearleyed       ?    ?     ?     ?
378    Sea Serpent grotto         Voll the Sharkfinned     ?    ?     ?     ?
379    Sea Serpent grotto         Denn the Orcavoiced      ?    ?     ?     ?
380    Sea Serpent grotto         Mouu the Waverider       ?    ?     ?     ?
381    Sea Serpent grotto         Worr the Clawfisted      ?    ?     ?     ?
382    Sea Serpent grotto         Zuug the Shoreleaper     ?    ?     ?     ?
383    Temple of Uggalepih        Manipulator              ?    ?     ?     ?
384    Temple of Uggalepih        Flauros                  ?    ?     ?     ?
385    Temple of Uggalepih        Death from Above         ?    ?     ?     ?
386    Temple of Uggalepih        Habetrot                 ?    ?     ?     ?
387    Temple of Uggalepih        Beryl-footed Molberry    ?    ?     ?     ?
388    Temple of Uggalepih        Sozu Sarberry            ?    ?     ?     ?
389    Temple of Uggalepih        Sozu Terberry            ?    ?     ?     ?
390    Temple of Uggalepih        Sozu Rogberry            ?    ?     ?     ?
391    Temple of Uggalepih        Sacrificial Goblet       ?    ?     ?     ?
392    Temple of Uggalepih        Crimson-toothed Pawberry ?    ?     ?     ?
393    Den of Rancor              Sozu Bliberry            ?    ?     ?     ?
394    Den of Rancor              Friar Rush               ?    ?     ?     ?
395    Den of Rancor              Celeste-eyed Tozberry    ?    ?     ?     ?
396    Den of Rancor              Tawny-fingered Mugberry  ?    ?     ?     ?
397    Den of Rancor              Bistre-hearted Malberry  ?    ?     ?     ?
398    Den of Rancor              Ogama                    ?    ?     ?     ?
399    Ifrit's Cauldron           Foreseer Oramix          ?    ?     ?     ?
400    Ifrit's Cauldron           Tyrannic Tunnok          ?    ?     ?     ?
401    Ifrit's Cauldron           Lindwurm                 ?    ?     ?     ?
402    Ifrit's Cauldron           Vouivre                  ?    ?     ?     ?
403    Ifrit's Cauldron           Tarasque                 ?    ?     ?     ?
404    Cape Teriggan              Tegmine                  ?    ?     ?     ?
405    Cape Teriggan              Frostmane                ?    ?     ?     ?
406    Cape Teriggan              Zmey Gorynych            ?    ?     ?     ?
407    Cape Teriggan              Killer Jonny             ?    ?     ?     ?
408    Eastern Altepa Desert      Dune Widow               ?    ?     ?     ?
409    Eastern Altepa Desert      Nandi                    ?    ?     ?     ?
410    Eastern Altepa Desert      Donnergugi               ?    ?     ?     ?
411    Eastern Altepa Desert      Sabotender Corrido       ?    ?     ?     ?
412    Western Altepa Desert      Cactuar Cantautor        ?    ?     ?     ?
413    Western Altepa Desert      Dahu                     ?    ?     ?     ?
414    Western Altepa Desert      Picolaton                ?    ?     ?     ?
415    Western Altepa Desert      Calchas                  ?    ?     ?     ?
416    Kuftal Tunnel              Cancer                   ?    ?     ?     ?
417    Kuftal Tunnel              Sabotender Mariachi      ?    ?     ?     ?
418    Kuftal Tunnel              Amemet                   ?    ?     ?     ?
419    Kuftal Tunnel              Yowie                    ?    ?     ?     ?
420    Kuftal Tunnel              Arachne                  ?    ?     ?     ?
421    Kuftal Tunnel              Bloodthirster Madkix     ?    ?     ?     ?
422    Kuftal Tunnel              Pelican                  ?    ?     ?     ?
423    Gustav Tunnel              Goblinsavior Heronox     ?    ?     ?     ?
424    Gustav Tunnel              Taxim                    ?    ?     ?     ?
425    Gustav Tunnel              Baobhan Sith             ?    ?     ?     ?
426    Quicksand Caves            Centurio X-I             ?    ?     ?     ?
427    Quicksand Caves            Sagittarius X-XIII       ?    ?     ?     ?
428    Quicksand Caves            Diamond Daig             ?    ?     ?     ?
429    Quicksand Caves            Antican Magister         ?    ?     ?     ?
430    Quicksand Caves            Antican Proconsul        ?    ?     ?     ?
431    Quicksand Caves            Antican Praefectus       ?    ?     ?     ?
432    Quicksand Caves            Antican Tribunus         ?    ?     ?     ?
433    Quicksand Caves            Sabotender Bailarin      ?    ?     ?     ?
434    Quicksand Caves            Tribunus VII-I           ?    ?     ?     ?
435    Quicksand Caves            Nussknacker              ?    ?     ?     ?
436    Quicksand Caves            Triarius X-XV            ?    ?     ?     ?
437    Quicksand Caves            Proconsul XII            ?    ?     ?     ?
438    Quicksand Caves            Sabotender Bailarina     ?    ?     ?     ?
439    Lufaise Meadows            Megalobugard             ?    ?     ?     ?
440    Lufaise Meadows            Yal-un Eke               ?    ?     ?     ?
441    Lufaise Meadows            Sengann                  ?    ?     ?     ?
442    Lufaise Meadows            Flockbock                ?    ?     ?     ?
443    Misareaux Coast            Odqan                    ?    ?     ?     ?
444    Misareaux Coast            Goaftrap                 ?    ?     ?     ?
445    Misareaux Coast            Ziphius                  ?    ?     ?     ?
446    Misareaux Coast            Okyupete                 ?    ?     ?     ?
447    Wajaom Woodlands           Zoraal Ja's Pkuucha      ?    ?     ?     ?
448    Wajaom Woodlands           Jaded Jody               ?    ?     ?     ?
449    Wajaom Woodlands           Chelicerata              ?    ?     ?     ?
450    Wajaom Woodlands           Gharial                  ?    ?     ?     ?
451    Bhaflau Thickets           Harvestman               ?    ?     ?     ?
452    Bhaflau Thickets           Emergent Elm             ?    ?     ?     ?
453    Bhaflau Thickets           Nis Puk                  ?    ?     ?     ?
454    Bhaflau Thickets           Mahishasura              ?    ?     ?     ?
455    Mount Zhayolm              Energetic Eruca          ?    ?     ?     ?
456    Mount Zhayolm              Chary Apkallu            ?    ?     ?     ?
457    Mount Zhayolm              Ignamoth                 ?    ?     ?     ?
458    Mount Zhayolm              Fahrafahr the Bloodied   ?    ?     ?     ?
459    Mamook                     Venomfang                ?    ?     ?     ?
460    Mamook                     Zizzy Zillah             ?    ?     ?     ?
461    Mamook                     Firedance Magmaal Ja     ?    ?     ?     ?
462    Aydeewa Subterrane         Lizardtrap               ?    ?     ?     ?
463    Aydeewa Subterrane         Crystal Eater            ?    ?     ?     ?
464    Aydeewa Subterrane         Bluestreak Gyugyuroon    ?    ?     ?     ?
465    Halvung                    Copper Borer             ?    ?     ?     ?
466    Halvung                    Big Bomb                 ?    ?     ?     ?
467    Halvung                    Flammeri                 ?    ?     ?     ?
468    Caedarva Mire              Peallaidh                ?    ?     ?     ?
469    Caedarva Mire              Zikko                    ?    ?     ?     ?
470    Caedarva Mire              Aynu-kaysey              ?    ?     ?     ?
471    Caedarva Mire              Vidhuwa the Wrathborn    ?    ?     ?     ?
472    Arrapago Reef              Bloody Bones             ?    ?     ?     ?
473    Gustav Tunnel              Amikiri                  ?    ?     ?     ?
474    Arrapago Reef              Euryale                  ?    ?     ?     ?
475    Gustav Tunnel              Ungur                    ?    ?     ?     ?
476    Alzadaal Undersea Ruins    Boompadu                 ?    ?     ?     ?
477    Alzadaal Undersea Ruins    Cookieduster Lipiroon    ?    ?     ?     ?
478    Alzadaal Undersea Ruins    Oupire                   ?    ?     ?     ?
479    East Ronfaure [S]          Skogs Fru                ?    ?     ?     ?
480    East Ronfaure [S]          Myradrosh                ?    ?     ?     ?
481    East Ronfaure [S]          Goblintrap               ?    ?     ?     ?
482    East Ronfaure [S]          Melusine                 ?    ?     ?     ?
483    Jugner Forest [S]          Boll Weevil              ?    ?     ?     ?
484    Jugner Forest [S]          Drumskull Zogdregg       ?    ?     ?     ?
485    Jugner Forest [S]          Vulkodlac                ?    ?     ?     ?
486    Jugner Forest [S]          Voirloup                 ?    ?     ?     ?
487    Vunkerl Inlet [S]          Warabouc                 ?    ?     ?     ?
488    Vunkerl Inlet [S]          Big Bang                 ?    ?     ?     ?
489    Vunkerl Inlet [S]          Pallas                   ?    ?     ?     ?
490    Vunkerl Inlet [S]          Judgmental Julika        ?    ?     ?     ?
491    Batallia Downs [S]         La Velue                 ?    ?     ?     ?
492    Batallia Downs [S]         Chaneque                 ?    ?     ?     ?
493    Batallia Downs [S]         Habergoass               ?    ?     ?     ?
494    Batallia Downs [S]         Burlibix Brawnback       ?    ?     ?     ?
495    Eldieme Necropolis [S]     Laelaps                  ?    ?     ?     ?
496    Eldieme Necropolis [S]     Tethra                   ?    ?     ?     ?
497    Eldieme Necropolis [S]     Ethniu                   ?    ?     ?     ?
498    North Gustaberg [S]        Gloomanita               ?    ?     ?     ?
499    North Gustaberg [S]        Olgoi-Khorkhoi           ?    ?     ?     ?
500    North Gustaberg [S]        Ankabut                  ?    ?     ?     ?
501    North Gustaberg [S]        Peaseblossom             ?    ?     ?     ?
502    Grauberg [S]               Sarcopsylla              ?    ?     ?     ?
503    Grauberg [S]               Scitalis                 ?    ?     ?     ?
504    Grauberg [S]               Kotan-kor Kamuy          ?    ?     ?     ?
505    Grauberg [S]               Vasiliceratops           ?    ?     ?     ?
506    Pashhow Marshlands [S]     Croque-mitaine           ?    ?     ?     ?
507    Pashhow Marshlands [S]     Kinepikwa                ?    ?     ?     ?
508    Pashhow Marshlands [S]     Sugaar                   ?    ?     ?     ?
509    Pashhow Marshlands [S]     Nommo                    ?    ?     ?     ?
510    Rolanberry Fields [S]      Lamina                   ?    ?     ?     ?
511    Rolanberry Fields [S]      Dyinyinga                ?    ?     ?     ?
512    Rolanberry Fields [S]      Erle                     ?    ?     ?     ?
513    Rolanberry Fields [S]      Delicieuse Delphine      ?    ?     ?     ?
514    Crawlers' Nest [S]         Abatwa                   ?    ?     ?     ?
515    Crawlers' Nest [S]         Morille Mortelle         ?    ?     ?     ?
516    Crawlers' Nest [S]         Lugh                     ?    ?     ?     ?
517    West Sarutabaruta [S]      Jeduah                   ?    ?     ?     ?
518    West Sarutabaruta [S]      Belladonna               ?    ?     ?     ?
519    West Sarutabaruta [S]      Ramponneau               ?    ?     ?     ?
520    West Sarutabaruta [S]      Tiffenotte               ?    ?     ?     ?
521    Fort Karugo-Narugo [S]     Emela-ntouka             ?    ?     ?     ?
522    Fort Karugo-Narugo [S]     Ratatoskr                ?    ?     ?     ?
523    Fort Karugo-Narugo [S]     Kirtimukha               ?    ?     ?     ?
524    Fort Karugo-Narugo [S]     Demoiselle Desolee       ?    ?     ?     ?
525    Meriphataud Mountains [S]  Muq Shabeel              ?    ?     ?     ?
526    Meriphataud Mountains [S]  Bloodlapper              ?    ?     ?     ?
527    Meriphataud Mountains [S]  Hemodrosophila           ?    ?     ?     ?
528    Meriphataud Mountains [S]  Centipedal Centruroides  ?    ?     ?     ?
529    Sauromugue Champaign [S]   Balam-Quitz              ?    ?     ?     ?
530    Sauromugue Champaign [S]   Hyakinthos               ?    ?     ?     ?
531    Sauromugue Champaign [S]   Herensugue               ?    ?     ?     ?
532    Sauromugue Champaign [S]   Coquecigrue              ?    ?     ?     ?
533    Garlaige Citadel [S]       Citadel Pipistrelles     ?    ?     ?     ?
534    Garlaige Citadel [S]       Buarainech               ?    ?     ?     ?
535    Garlaige Citadel [S]       Elatha                   ?    ?     ?     ?
536    Beaucedine Glacier [S]     Came-cruse               ?    ?     ?     ?
537    Beaucedine Glacier [S]     Becut                    ?    ?     ?     ?
538    Beaucedine Glacier [S]     Grand'Goule              ?    ?     ?     ?
539    Beaucedine Glacier [S]     Scylla                   ?    ?     ?     ?
540    Xarcabard [S]              Tikbalang                ?    ?     ?     ?
541    Xarcabard [S]              Prince Orobas            ?    ?     ?     ?
542    Xarcabard [S]              Graoully                 ?    ?     ?     ?
543    Xarcabard [S]              Zirnitra                 10  10    100    45
544    Habitat Unknown            Krabkatoa                ?    ?     ?     ?
545    Habitat Unknown            Yacumama                 ?    ?     ?     ?
546    Habitat Unknown            Capricornus              ?    ?     ?     ?
547    Habitat Unknown            Blobdingnag              ?    ?     ?     ?
548    Habitat Unknown            Shoggoth                 ?    ?     ?     ?
548    Habitat Unknown            LamLord                  ?    ?     ?     ?
549    Habitat Unknown            Orcus                    ?    ?     ?     ?
550    Habitat Unknown            Jyeshtha                 ?    ?     ?     ?
551    Habitat Unknown            Farruca Fly              ?    ?     ?     ?
552    Habitat Unknown            Verthandi                ?    ?     ?     ?
553    Habitat Unknown            Urd                      ?    ?     ?     ?
554    Habitat Unknown            Skuld                    ?    ?     ?     ?
556    Habitat Unknown            Lord Ruthven             ?    ?     ?     ?
557    Habitat Unknown            Erebus                   ?    ?     ?     ?
558    Habitat Unknown            Feuerunke                ?    ?     ?     ?
559    Habitat Unknown            Yilbegan                 ?    ?     ?     ?

---------------------------------------
Dominion OPs

OP    ID    Area                Target MOBs
01   560   Abyssea-Altepa      Sand Sweeper
02   561   Abyssea-Altepa      Surveyor
03   562   Abyssea-Altepa      Bonfire
04   563   Abyssea-Altepa      Dune Manticore
05   564   Abyssea-Altepa      Manigordo
06   565   Abyssea-Altepa      Camelopardalis
07   566   Abyssea-Altepa      Desert Puk
08   567   Abyssea-Altepa      Ergdrake
09   568   Abyssea-Altepa      Dune Cockatrice
10   569   Abyssea-Altepa      Gastornis
11   570   Abyssea-Altepa      Nannakola
12   571   Abyssea-Altepa      Akrab
13   572   Abyssea-Altepa      Fear Dearg
14   573   Abyssea-Altepa      Barrens Treant
01   574   Abyssea-Uleguerand  Mechanical Menace
02   575   Abyssea-Uleguerand  Spectator
03   576   Abyssea-Uleguerand  Sub-zero Gear
04   577   Abyssea-Uleguerand  Snowflake
05   578   Abyssea-Uleguerand  Verglas Golem
06   579   Abyssea-Uleguerand  Olyphant
07   580   Abyssea-Uleguerand  Svelldrake
08   581   Abyssea-Uleguerand  Adasaurus
09   582   Abyssea-Uleguerand  Ectozoon
10   583   Abyssea-Uleguerand  Hoarmite
11   584   Abyssea-Uleguerand  Ermit Imp
12   585   Abyssea-Uleguerand  Benumbed Vodoriga
13   586   Abyssea-Uleguerand  Bluffalo
14   587   Abyssea-Uleguerand  Sierra Tiger
01   588   Abyssea-Grauberg    Sinister Seidel
02   589   Abyssea-Grauberg    Monitor
03   590   Abyssea-Grauberg    Stygian Djinn
04   591   Abyssea-Grauberg    Faunus Wyvern
05   592   Abyssea-Grauberg    Putrid Peapuk
06   593   Abyssea-Grauberg    Glade Wivre
07   594   Abyssea-Grauberg    Sensenmann
08   595   Abyssea-Grauberg    Deimobugard
09   596   Abyssea-Grauberg    Peak Pugil
10   597   Abyssea-Grauberg    Glen Crab
11   598   Abyssea-Grauberg    Seelie
12   599   Abyssea-Grauberg    Unseelie
13   600   Abyssea-Grauberg    Goblin Plunderer
14   601   Abyssea-Grauberg    Goblin Meatgrinder

---------------------------------------
Grounds of Valor

Page  ID    Area                      Target MOBs
1    602   Ranguemont Pass           Wind Bats Wind Bats/Blade Bat Blade Bats
2    603   Ranguemont Pass           Seeker Bats Seeker Bats/Ooze Ooze
3    604   Ranguemont Pass           Goblin Mugger/Goblin Gambler
4    605   Ranguemont Pass           Goblin Leecher/Goblin Gambler
5    606   Ranguemont Pass           Stirge/Hecteyes
6    607   Ranguemont Pass           Bilesucker/Hovering Oculus
7    608   Ranguemont Pass           Goblin Hoodoo/Goblin Chaser
8    609   Ranguemont Pass           Goblin Tanner/Goblin Artificer
1    610   Bostaunieux Oubliette     Dark Aspic
2    611   Bostaunieux Oubliette     Funnel Bats/Werebat
3    612   Bostaunieux Oubliette     Members of the hound family/Haunt
4    613   Bostaunieux Oubliette     Bloodsucker
5    614   Bostaunieux Oubliette     Dabilla/Panna Cotta
6    615   Bostaunieux Oubliette     Blind Bat/Panna Cotta
7    616   Bostaunieux Oubliette     Nachtmahr
8    617   Bostaunieux Oubliette     Wurdalak/Blind Bat
1    618   Toraimarai Canal          Hell Bat/Makara
2    619   Toraimarai Canal          Fallen Knight/Lich/Dark Aspic
3    620   Toraimarai Canal          Dark Aspic/Bloodsucker
4    621   Toraimarai Canal          Scavenger Crab/Stygian Pugil
5    622   Toraimarai Canal          Starborer/Deviling Bats
6    623   Toraimarai Canal          Plunderer Crab/Sodden Bones
7    624   Toraimarai Canal          Blackwater Pugil/Drowned Bones
8    625   Toraimarai Canal          Flume Toad/Poroggo Excavator
1    626   Zeruhn Mines              Ding Bats
2    627   Zeruhn Mines              River Crab
3    628   Zeruhn Mines              Colliery Bat/Soot Crab
4    629   Zeruhn Mines              Colliery Bat/Burrower Worm
5    630   Zeruhn Mines              Colliery Bat/Veindigger Leech
1    631   King Ranperre's Tomb      Mouse Bat/Members of the Goblin family
2    632   King Ranperre's Tomb      Stone Eater/Wind Bats
3    633   King Ranperre's Tomb      Goblin Ambusher/Goblin Tinkerer/Goblin Butcher
4    634   King Ranperre's Tomb      Plague Bats/Rock Eater
5    635   King Ranperre's Tomb      Goblin Mugger/Goblin Leecher/Goblin Gambler
6    636   King Ranperre's Tomb      Ossuary Worm/Lemures
7    637   King Ranperre's Tomb      Spartoi Warrior/Hati
8    638   King Ranperre's Tomb      Spartoi Sorcerer/Ogre Bat
1    639   Dangruf Wadi              Stone Eater Stone Eaters/Rock Lizard
2    640   Dangruf Wadi              Members of the Goblin family/Wadi Crab
3    641   Dangruf Wadi              Wadi Hare/Wadi Leech
4    642   Dangruf Wadi              Fume Lizard/Goblin Brigand
5    643   Dangruf Wadi              Witchetty Grub/Goblin Headsman
6    644   Dangruf Wadi              Prim Pika/Goblin Healer
7    645   Dangruf Wadi              Goblin Conjurer/Goblin Bladesmith/Goblin Bushwhacker
8    646   Dangruf Wadi              Trimmer Trimmers/Natty Gibbon
1    647   Inner Horutoto Ruins      Battue Bats/Goblin Thug
2    648   Inner Horutoto Ruins      Blade Bat/Goblin Weaver
3    649   Inner Horutoto Ruins      Battle Bat/Blob
4    650   Inner Horutoto Ruins      Members of the evil weapon family/Will-o'-the-Wisp
5    651   Inner Horutoto Ruins      Troika Bats/Goblin Trailblazer
6    652   Inner Horutoto Ruins      Deathwatch Beetle/Goblin Flesher
7    653   Inner Horutoto Ruins      Covin Bat/Skinnymalinks
8    654   Inner Horutoto Ruins      Goblin Lurcher/Skinnymajinx
1    655   Ordelle's Caves           Stalking Sapling/Thread Leech
2    656   Ordelle's Caves           Fly Agaric/Shrieker
3    657   Ordelle's Caves           Members of the Goblin family/Will-o'-the-Wisp
4    658   Ordelle's Caves           Seeker Bats/Vorpal Bunny
5    659   Ordelle's Caves           Ancient Bat/Jelly
6    660   Ordelle's Caves           Goliath Beetle/Stroper
7    661   Ordelle's Caves           Buds Bunny/Targe Beetle
8    662   Ordelle's Caves           Bilis Leech/Swagger Spruce
1    663   Outer Horutoto Ruins      Four of Cups/Four of Batons/Four of Swords/Four of Coins
2    664   Outer Horutoto Ruins      Five of Cups/Five of Batons/Five of Swords/Five of Coins
3    665   Outer Horutoto Ruins      Six of Cups/Six of Batons/Six of Swords/Six of Coins
4    666   Outer Horutoto Ruins      Seven of Cups/Seven of Batons/Seven of Swords/Seven of Coins
5    667   Outer Horutoto Ruins      Eight of Cups/Eight of Batons/Eight of Swords/Eight of Coins
6    668   Outer Horutoto Ruins      Nine of Cups/Nine of Batons/Nine of Swords/Nine of Coins
7    669   Outer Horutoto Ruins      Fetor Bats/Fuligo
8    670   Outer Horutoto Ruins      Thorn Bat/Fuligo
1    671   The Eldieme Necropolis    Members of the skeleton family
2    672   The Eldieme Necropolis    Members of the shadow family
3    673   The Eldieme Necropolis    Members of the shadow family/Azer
4    674   The Eldieme Necropolis    Lich/Blood Soul
5    675   The Eldieme Necropolis    Tomb Wolf/Members of the skeleton family
6    676   The Eldieme Necropolis    Tomb Warrior/Tomb Mage
7    677   The Eldieme Necropolis    Hellbound Warrior/Nekros Hound
8    678   The Eldieme Necropolis    Hellbound Warlock/Nekros Hound
1    679   Gusgen Mines              Members of the skeleton family
2    680   Gusgen Mines              Fly Agaric/Members of the skeleton family
3    681   Gusgen Mines              Ore Eater/Bandersnatch
4    682   Gusgen Mines              Greater Pugil/Amphisbaena/Mauthe Doog
5    683   Gusgen Mines              Wight/Myconid
6    684   Gusgen Mines              Ghast/Gallinipper
7    685   Gusgen Mines              Accursed Soldier/Rockmill
8    686   Gusgen Mines              Accursed Sorcerer/Madfly
1    687   Crawlers' Nest            Worker Crawler/Death Jacket
2    688   Crawlers' Nest            Soldier Crawler/Nest Beetle
3    689   Crawlers' Nest            Labyrinth Lizard/Witch Hazel
4    690   Crawlers' Nest            Exoray/Hornfly
5    691   Crawlers' Nest            Rumble Crawler/Wespe Wespes/Dragonfly
6    692   Crawlers' Nest            Helm Beetle/Knight Crawler
7    693   Crawlers' Nest            King Crawler/Vespo
8    694   Crawlers' Nest            Dancing Jewel/Olid Funguar
1    695   Maze of Shakhrami         Members of the Goblin family/Stink Bats
2    696   Maze of Shakhrami         Maze Maker Maze Makers/Combat
3    697   Maze of Shakhrami         Ghoul Ghouls/Carnivorous Crawler
4    698   Maze of Shakhrami         Caterchipillar/Ancient Bat
5    699   Maze of Shakhrami         Abyss Worm/Ancient Bat
6    700   Maze of Shakhrami         Abyss Worm/Labyrinth Scorpion
7    701   Maze of Shakhrami         Chaser Bats/Bleeder Leech
8    702   Maze of Shakhrami         Warren Bat/Crypterpillar
1    703   Garlaige Citadel          Wingrats/Members of the skeleton family
2    704   Garlaige Citadel          Siege Bat/Borer Beetle
3    705   Garlaige Citadel          Members of the evil weapon family/Citadel Bats
4    706   Garlaige Citadel          Funnel Bats/Explosure
5    707   Garlaige Citadel          Droma/Chamber Beetle
6    708   Garlaige Citadel          Over Weapon/Vault Weapon/Wraith Wraiths
7    709   Garlaige Citadel          Donjon Bat/Kaboom
8    710   Garlaige Citadel          Fortalice Bats/Warden Beetle
1    711   Fei'Yin                   Vampire Bat/Drone
2    712   Fei'Yin                   Members of the shadow family/Ore Golem
3    713   Fei'Yin                   Underworld Bats/Talos
4    714   Fei'Yin                   Underworld Bats/Droma
5    715   Fei'Yin                   Underworld Bats/Colossus
6    716   Fei'Yin                   Killing Weapon/Hellish Weapon
7    717   Fei'Yin                   Balayang/Wekufe
8    718   Fei'Yin                   Balayang/Sentient Carafe
1    719   The Boyahda Tree          Death Cap/Bark Spider
2    720   The Boyahda Tree          Mourioche/Robber Crab
3    721   The Boyahda Tree          Mourioche/Moss Eater
4    722   The Boyahda Tree          Korrigan/Elder Goobbue
5    723   The Boyahda Tree          Skimmer/Steelshell
6    724   The Boyahda Tree          Processionaire/Darter
7    725   The Boyahda Tree          Boyahda Sapling/Bark Tarantula
8    726   The Boyahda Tree          Viseclaw/Snaggletooth Peapuk/Mourning Crawler
1    727   Korroloka Tunnel          Land Worm/Seeker Bats
2    728   Korroloka Tunnel          Seeker Bats/Combat
3    729   Korroloka Tunnel          Huge Spider/Jelly
4    730   Korroloka Tunnel          Thread Leech
5    731   Korroloka Tunnel          Clipper/Greater Pugil
6    732   Korroloka Tunnel          Bogy
7    733   Korroloka Tunnel          Members of the Gigas family
8    734   Korroloka Tunnel          Lacerator/Spool Leech
1    735   Kuftal Tunnel             Robber Crab/Sand Lizard
2    736   Kuftal Tunnel             Robber Crab/Haunt
3    737   Kuftal Tunnel             Cave Worm/Recluse Spider
4    738   Kuftal Tunnel             Robber Crab/Sabotender Sediendo
5    739   Kuftal Tunnel             Kuftal Digger/Recluse Spider
6    740   Kuftal Tunnel             Deinonychus/Members of the Goblin family
7    741   Kuftal Tunnel             Ovinnik/Greater Cockatrice
8    742   Kuftal Tunnel             Kuftal Delver/Machairodus
1    743   Ve'Lugannon Palace        arcana-type creatures
2    744   Ve'Lugannon Palace        Members of the evil weapon family
3    745   Ve'Lugannon Palace        Dustbuster
4    746   Ve'Lugannon Palace        Caretaker
5    747   Ve'Lugannon Palace        Enkidu
6    748   Ve'Lugannon Palace        Members of the elemental family
1    749   The Shrine of Ru'Avitau   arcana-type creatures
2    750   The Shrine of Ru'Avitau   Members of the elemental family
3    751   The Shrine of Ru'Avitau   Aura Pot Aura Pots
4    752   The Shrine of Ru'Avitau   Members of the doll family
5    753   The Shrine of Ru'Avitau   Members of the evil weapon family
6    754   The Shrine of Ru'Avitau   Members of the golem family
1    755   Ifrit's Cauldron          Volcano Wasp/Volcanic Gas
2    756   Ifrit's Cauldron          Old Opo-opo Old Opo-opos/Volcanic Gas
3    757   Ifrit's Cauldron          Members of the Goblin family/Volcanic Gas
4    758   Ifrit's Cauldron          Eotyrannus/Volcanic Gas
5    759   Ifrit's Cauldron          Volcanic Gas/Sulfur Scorpion
6    760   Ifrit's Cauldron          Nightmare Bats/Volcanic Bomb
7    761   Ifrit's Cauldron          Ash Lizard/Volcanic Bomb
8    762   Ifrit's Cauldron          Hurricane Wyvern/Volcanic Bomb
1    763   Gustav Tunnel             Labyrinth Lizard/Labyrinth Leech/Members of the bat family
2    764   Gustav Tunnel             Hawker/Makara/Members of the Goblin family
3    765   Gustav Tunnel             Robber Crab/Members of the skeleton family/Members of the Goblin family
4    766   Gustav Tunnel             Doom Warlock/Demonic Pugil
5    767   Gustav Tunnel             Doom Guard/Erlik
6    768   Gustav Tunnel             Doom Guard/Antares
7    769   Gustav Tunnel             Doom Warlock/Typhoon Wyvern
8    770   Gustav Tunnel             Boulder Eater/Pygmytoise
1    771   Labyrinth of Onzozo       Labyrinth Leech/Members of the Goblin family
2    772   Labyrinth of Onzozo       Cockatrice/Members of the Goblin family
3    773   Labyrinth of Onzozo       Mushussu/Cockatrice
4    774   Labyrinth of Onzozo       Members of the sea monk family/Members of the Goblin family
5    775   Labyrinth of Onzozo       Torama/Labyrinth Manticore
6    776   Labyrinth of Onzozo       Babaulas/Boribaba
1    777   Lower Delkfutt's Tower    Members of the bat family/Members of the Goblin family
2    778   Lower Delkfutt's Tower    Members of the bat family/Members of the Gigas family
3    779   Lower Delkfutt's Tower    Members of the bat family/Chaos Idol
4    780   Lower Delkfutt's Tower    Members of the bat family/Bogy
5    781   Lower Delkfutt's Tower    Members of the bat family/Members of the magic pot family
1    782   Middle Delkfutt's Tower   Members of the Goblin family/Members of the bat family
2    783   Middle Delkfutt's Tower   Members of the Gigas family/Members of the bat family
3    784   Middle Delkfutt's Tower   Members of the Goblin family/Members of the Gigas family
1    785   Upper Delkfutt's Tower    Members of the Gigas family
2    786   Upper Delkfutt's Tower    Jotunn Wallkeeper/Jotunn Gatekeeper/Members of the bat family
3    787   Upper Delkfutt's Tower    Jotunn Hallkeeper/Jotunn Wildkeeper/Members of the bat family
4    788   Upper Delkfutt's Tower    Jotunn Gatekeeper/Jotunn Hallkeeper/arcana-type creatures
5    789   Upper Delkfutt's Tower    Jotunn Wildkeeper/Jotunn Wallkeeper/arcana-type creatures
1    790   Temple of Uggalepih       Members of the Tonberry family/Members of the bee family
2    791   Temple of Uggalepih       Members of the Tonberry family/Rumble Crawler
3    792   Temple of Uggalepih       Members of the Tonberry family/Temple Opo-opo
4    793   Temple of Uggalepih       Members of the Tonberry family/Temple Bee
5    794   Temple of Uggalepih       Members of the Tonberry family/Hover Tank
6    795   Temple of Uggalepih       Members of the Tonberry family/Iron Maiden
1    796   Den of Rancor             Dire Bat/Cave Worm
2    797   Den of Rancor             Dire Bat/Mousse
3    798   Den of Rancor             Members of the Tonberry family
4    799   Den of Rancor             Succubus Bats/Members of the Tonberry family
5    800   Den of Rancor             Million Eyes/Members of the Tonberry family
6    801   Den of Rancor             Demonic Pugil/Doom Toad
7    802   Den of Rancor             Tormentor/Puck Pucks
8    803   Den of Rancor             Tormentor/Bullbeggar
1    804   Sea Serpent Grotto        Royal Leech/Undead Bats
2    805   Sea Serpent Grotto        Ironshell/Members of the skeleton family
3    806   Sea Serpent Grotto        Members of the Sahagin family/Vampire Bat
4    807   Sea Serpent Grotto        Members of the Sahagin family/Bigclaw
5    808   Sea Serpent Grotto        Members of the Sahagin family/Grotto Pugil
6    809   Sea Serpent Grotto        Robber Crab/Dire Bat
7    810   Sea Serpent Grotto        Robber Crab/Devil Manta
8    811   Sea Serpent Grotto        Mindgazer/Greatclaw Greatclaws
1    812   Quicksand Caves           Sand Spider/Members of the Antica family
2    813   Quicksand Caves           Helm Beetle/Members of the Antica family
3    814   Quicksand Caves           Members of the worm family/Members of the Antica family
4    815   Quicksand Caves           Members of the Antica family
5    816   Quicksand Caves           Members of the sabotender family/Members of the Antica family
6    817   Quicksand Caves           Sand Lizard/Members of the Antica family
7    818   Quicksand Caves           Girtab/Members of the Antica family
8    819   Quicksand Caves           Sand Tarantula/Members of the Antica family
